{
  "metadata":{
    "rootdev_base": "/sys/devices/ocp.2/mmc.3/mmc_host/mmc0/mmc0:55db/block/mmcblk0"
  },
  "parent": "legacy_disk_layout.json",
  "layouts":{
    "common":[
      {
        "num": "metadata",
        "hybrid_mbr": true
      },
      {
        "num": 5,
        "size":"400 MiB",
        "fs_size":"360 MiB"
      },
      {
        "num": 3,
        "size":"400 MiB",
        "fs_size":"360 MiB"
      }
    ]
  }
}
